Query Species Occurrence Records within an H3 Area of Interest (AOI) — h3sdm_get_records • h3sdm
…
  records <- h3sdm_get_records(
    species = "Puma concolor",
    aoi_sf = aoi_sf,
    providers = "gbif",
    limit = 100
  )

  print(records)
#> Simple feature collection with 100 features and 5 fields
#> Geometry type: POINT
#> Dimension:     XY
#> Bounding box:  xmin: -84.47708 ymin: 9.51482 xmax: -83.53498 ymax: 10.49709
#> Geodetic CRS:  WGS 84
#> # A tibble: 100 × 6
#>    name          prov  date       key      id             geometry
#>  * <chr>         <chr> <date>     <chr> <dbl>          <POINT [°]>
#>  1 Puma concolo… gbif  2025-02-19 5285…     1 (-83.71914 10.22468)
#>  2 Puma concolo… gbif  2025-03-04 5108…     1 (-84.01068 10.43068)
#>  3 Puma concolo… gbif  2025-03-18 5285…     1  (-83.68964 9.99557)
#>  4 Puma concolo… gbif  2025-04-07 5134…     1 (-84.04335 9.592563)
#>  5 Puma concolo… gbif  2025-04-09 5134…     1 (-83.75343 9.748917)
#>  6 Puma concolo… gbif  2025-07-09 5760…     1 (-83.76754 9.554898)
#>  7 Puma concolo… gbif  2024-01-18 5285…     1 (-83.58003 10.04675)
#>  8 Puma concolo… gbif  2024-02-23 4528…     1 (-84.01002 10.43693)
#>  9 Puma concolo… gbif  2024-03-20 4599…     1 (-84.47061 10.02827)
#> 10 Puma concolo… gbif  2024-05-28 5285…     1  (-84.3503 10.29371)
#> # ℹ 90 more rows
…
